STAT 413/613 Homework on Web Data: APIs and Scraping
…
    ismovierank ~ "rank",
    isname ~ "movie",
    isyear ~ "year",
    ismpaa ~ "mpaa",
    islength ~ "length",
    isgenre ~ "genre",
    isstar ~ "star_rating",
    ismeta ~ "metascore",
    isgross ~ "gross")) %>% 
  select(movienum, key, text) %>% 
  pivot_wider(names_from = key, values_from = text) ->
  oscar_movies
oscar_movies

## # A tibble: 93 x 10
##    movienum rank  movie   year   mpaa  length genre  star_rating metascore gross
##       <int> <chr> <chr>   <chr>  <chr> <chr>  <chr>  <chr>       <chr>     <chr>
##  1        1 1.    Parasi (2019) R     132 m "\nCo 8.6         "96      $53.
##  2        2 2.    Green  (2018) PG-13 130 m "\nBi 8.2         "69      $85.
##  3        3 3.    The Sh (2017) R     123 m "\nAd 7.3         "87      $63.
##  4        4 4.    Moonli (I) ( R     111 m "\nDr 7.4         "99      $27.
##  5        5 5.    Spotli (I) ( R     129 m "\nBi 8.1         "93      $45.
##  6        6 6.    Birdma (2014) R     119 m "\nCo 7.7         "87      $42.
##  7        7 7.    12 Yea (2013) R     134 m "\nBi 8.1         "96      $56.
##  8        8 8.    Argo    (2012) R     120 m "\nBi 7.7         "86      $136
##  9        9 9.    The Ar (I) ( PG-13 100 m "\nCo 7.9         "89      $44.
## 10       10 10.   The Ki (2010) R     118 m "\nBi 8.0         "88      $138
## #  with 83 more rows

oscar_movies %>%
  mutate(rank = parse_number(rank),
         year = parse_number(year),
         length = parse_number(length),
         genre = str_replace_all(genre, "\\n", ""),
         genre = str_squish(genre),
         star_rating = parse_number(star_rating),
         metascore = parse_number(metascore),
         gross = parse_number(gross),
         movienum = NULL) ->
  oscar_movies
oscar_movies

## # A tibble: 93 x 9
##     rank movie           year mpaa  length genre     star_rating metascore gross
##    <dbl> <chr>          <dbl> <chr>  <dbl> <chr>           <dbl>     <dbl> <dbl>
##  1     1 Parasite        2019 R        132 Comedy,          8.6        96  53.4
##  2     2 Green Book      2018 PG-13    130 Biograph         8.2        69  85.1
##  3     3 The Shape of   2017 R        123 Adventur         7.3        87  63.9
##  4     4 Moonlight       2016 R        111 Drama             7.4        99  27.8
##  5     5 Spotlight       2015 R        129 Biograph         8.1        93  45.1
##  6     6 Birdman or (T  2014 R        119 Comedy,          7.7        87  42.3
##  7     7 12 Years a Sl  2013 R        134 Biograph         8.1        96  56.7
##  8     8 Argo            2012 R        120 Biograph         7.7        86 136. 
##  9     9 The Artist      2011 PG-13    100 Comedy,          7.9        89  44.7
## 10    10 The King's Sp  2010 R        118 Biograph         8          88 139. 
## #  with 83 more rows
…
